<?xml version="1.0"?>
<svg xmlns="http://www.w3.org/2000/svg" width="80" height="80" viewBox="0 0 80 80">
  <g fill="#8CC63E">
    <path d="M40 76c19.882 0 36-16.118 36-36s-16.118-36-36-36-36 16.118-36 36 16.118 36 36 36zm0 4c-22.091 0-40-17.909-40-40s17.909-40 40-40 40 17.909 40 40-17.909 40-40 40zM33 51.172l-11.586-11.586c-.781-.781-2.047-.781-2.828 0-.781.781-.781 2.047 0 2.828l13 13c.781.781 2.047.781 2.828 0l27-27c.781-.781.781-2.047 0-2.828-.781-.781-2.047-.781-2.828 0l-25.586 25.586z"/>
  </g>
</svg>
